{
  "Central Desert Den": [ 3221225977 ],
  "South Desert Den": [ 3221291513 ],
  "Northwestern Desert Den": [ 3221357049 ],
  "Roadside Cave": [ 3221422585 ],
  "East Desert Den": [ 3221553657 ],
  "Failed Mines": [ 3221619193 ],
  "Northern Terraforming Plant": [ 3221684729 ],
  "Western Terraforming Plant": [ 3222012409 ],
  "Mantis Hive": [ 3222405625 ],
  "Crashed Omni-Tek Troop Shuttle": [ 3221750265, 3221815801, 3221881337, 3221946873, 3222077945, 3222143481, 3222209017, 3222274553, 3222340089 ],
  "Luyana Caves": [ 3222471161 ],
  "Reonfel Cave": [ 3222602233 ],
  "Granaitus Caverns": [ 3222798841 ],
  "Ulian Caves": [ 3222864377 ],
  "Eyuvian Caverns": [ 3222929913 ],
  "Yilup Caverns": [ 3223126521 ],
  "Perlos Cave": [ 3223257593 ],
  "Oolaggy Cave": [ 3223388665 ],
  "Cyborg Billet": [ 3222536697, 3222667769 ],
  "Cyborg Citadel": [ 3221488121 ],
  "a house": [ 3221226012, 3221291548, 3221357084, 3221422620, 3221488156, 3221553692, 3221619228, 3221684764, 3221750300, 3221881372, 3222012444, 3222077980, 3222143516, 3222209052, 3222274588, 3223061020, 3223585308, 3223650844, 3223781916, 3224175132, 3224371740, 3224437276, 3224502812, 3224568348, 3224306204, 3221553817, 3222143641, 3222209177, 3222274713, 3222340249, 3221357209, 3221226182, 3221291718, 3221357254, 3221422790, 3221488326, 3221553862, 3221619398, 3221684934, 3221750470, 3221816006, 3221881542, 3221947078, 3222012614, 3222078150, 3222143686, 3222209222, 3222274758, 3222340294, 3223192262, 3223257798, 3223323334, 3223388870, 3223454406, 3223519942, 3223585478, 3223651014, 3223716550, 3223782086, 3223847622, 3223913158, 3223978694, 3224044230, 3224109766, 3224175302, 3224240838, 3224306374, 3224371910, 3224437446, 3224502982, 3224568518, 3224634054, 3224699590, 3224765126, 3224830662 ],
  "a ruined building": [ 3224633884, 3224830492, 3225027100, 3225289244, 3226599964, 3226665500, 3226731036, 3226927644, 3227189788, 3227451932, 3226534428, 3225158172, 3223323184, 3223388720, 3223454256, 3221226058, 3221291594, 3221357130, 3221422666, 3221488202, 3222078026, 3222143562, 3222209098 ],
  "a building": [ 3225485852, 3225551388, 3224240688, 3222536757, 3222602293, 3221946998, 3222012534, 3222078070, 3222143606, 3222209142, 3222274678, 3222340214, 3222405750, 3222471286, 3222536822, 3222602358, 3222667894, 3222733430, 3222798966, 3222864502, 3223126646, 3223192182, 3223257718, 3223323254, 3223388790, 3233809049, 3234136729, 3234202265, 3222733465, 3222930073, 3223323289, 3223519897, 3223585433, 3223650969, 3223716505, 3223782041, 3223847577, 3223913113, 3223978649, 3224240793, 3224961689, 3225027225, 3225158297, 3225223833, 3225551513, 3225682585, 3225944729, 3226010265, 3226272409, 3226337945, 3226600089, 3226927769, 3226993305, 3227058841, 3227124377, 3227189913, 3227714201, 3227976345, 3228041881, 3229155993, 3228172953, 3228238489, 3228304025, 3228369561, 3228435097, 3228500633, 3228566169, 3228631705, 3228697241, 3229287065, 3229483673, 3229549209, 3229614745, 3229745817, 3229942425, 3230007961, 3230270105, 3230335641, 3230859929, 3231318681, 3231384217, 3231449753, 3231515289, 3231580825, 3231646361, 3231711897, 3231777433, 3231842969, 3231908505, 3232039577, 3232105113, 3232301721, 3232367257, 3232432793, 3232629401, 3232760473, 3229221529, 3232694937, 3232891545, 3233219225, 3233546905, 3234333337, 3223323319, 3223388855, 3223454391, 3223519927, 3223585463, 3223650999, 3223716535, 3223782071, 3223847607, 3223913143, 3223978679, 3224044215, 3224109751, 3224175287, 3224240823, 3224306359, 3224371895, 3224437431, 3224502967, 3224568503, 3224634039, 3224699575, 3224765111, 3224830647, 3224896183, 3224961719, 3225027255, 3225092791, 3225158327, 3225223863, 3225289399, 3225354935, 3225420471, 3225551543, 3225617079, 3225682615, 3225748151, 3225813687, 3225879223, 3225944759, 3226010295, 3226075831, 3226141367, 3226206903, 3226272439, 3226337975, 3226403511, 3226469047, 3226534583, 3226600119, 3222405830, 3222471366, 3222536902, 3222602438, 3222667974, 3222733510, 3222799046, 3222864582, 3222930118, 3222995654, 3223061190, 3223126726, 3224896198, 3224961734, 3225027270, 3225092806, 3221750510, 3221816046, 3221684974, 3221422830, 3221226222, 3221291758, 3221357294, 3221488366, 3221553902, 3221619438, 3221881582, 3221947118, 3222012654, 3222078190, 3222143726, 3222209262, 3222340334, 3222799086, 3222864622, 3222733550 ],
  "a slumhouse": [ 3225747996, 3226075676, 3226272284 ],
  "A house in West Athen": [ 3221291553, 3221357089, 3221422625, 3221488161, 3221553697 ],
  "A empty house": [ 3221619233, 3221684769 ],
  "A small grotto outside of West Athen": [ 3221226017 ],
  "Cave": [ 3221553702, 3221619238, 3221684774, 3221291558, 3221422630, 3221488166, 3221815846, 3221881382, 3221946918, 3224371751, 3224437287, 3224502823, 3224568359, 3224633895, 3221357095, 3221422631, 3221488167, 3221553703, 3221619239, 3221684775, 3221750311, 3221815847, 3221881383, 3221946919, 3222012455, 3222274599, 3222536743, 3222667815, 3222733351, 3222798887, 3222143527, 3222209063, 3222340135, 3221553717, 3221815861, 3223913038, 3224240718, 3224306254, 3224371790, 3224437326, 3224502862, 3224568398, 3224633934, 3224699470, 3224765006, 3224830542, 3224896078, 3224961614, 3225027150, 3225092686, 3225158222, 3225223758, 3225289294, 3225354830, 3225420366, 3225485902, 3225551438, 3225616974, 3225682510, 3225748046, 3225813582, 3225879118, 3225944654, 3226010190, 3226075726, 3226141262, 3226206798, 3226272334, 3226337870, 3226403406, 3226468942, 3226534478, 3226600014, 3226665550, 3226731086, 3226796622, 3226862158, 3226927694, 3226993230, 3227058766, 3227124302, 3227189838, 3227255374, 3227320910, 3227386446, 3227451982, 3227517518, 3227583054, 3227648590, 3227714126, 3227779662, 3227845198, 3227910734, 3227976270, 3228041806, 3228107342, 3228172878, 3228238414, 3228303950, 3228369486, 3228435022, 3228500558, 3228566094, 3228631630, 3228697166, 3228762702, 3222340179, 3222405715, 3222471251, 3222536787, 3222602323, 3222667859, 3222733395, 3222798931, 3222864467, 3222930003, 3222995539, 3224175187, 3224240723, 3224306259, 3224371795, 3224437331, 3224502867, 3224568403, 3224633939, 3224699475, 3224765011, 3224830547, 3224896083, 3224961619, 3225027155, 3225092691, 3225158227, 3225223763, 3225289299, 3225354835, 3225420371, 3225485907, 3225551443, 3225616979, 3223126611, 3223192147, 3223257683, 3223323219, 3223388755, 3223454291, 3223519827, 3223585363, 3223650899, 3223716435, 3223781971, 3223847507, 3223913043, 3223978579, 3224044115, 3224109651, 3222209127, 3224830607, 3224896143, 3224961679 ],
  "Ruin": [ 3222012454, 3222077990, 3222143526, 3222209062, 3222274598, 3222340134, 3222405670, 3222471206, 3222536742, 3225748026, 3222733390, 3222798926, 3222864462, 3222929998, 3222995534, 3223061070, 3223126606, 3223192142, 3223257678, 3223323214, 3223388750, 3223454286, 3223519822, 3224109646, 3224175182, 3223978609, 3224044145, 3224109681, 3224175217, 3224240753 ],
  "House": [ 3222602278, 3222667814, 3222733350, 3222798886, 3222864422, 3222929958, 3222995494, 3223061030, 3224699431, 3224764967, 3224830503, 3224896039, 3224961575, 3225027111, 3225092647, 3225158183, 3225223719, 3223585358, 3223650894, 3223716430, 3223781966, 3223847502, 3223978574, 3224044110 ],
  "Outpost": [ 3223126567, 3223192103, 3223257639, 3223323175, 3223388711, 3223454247, 3223519783, 3223650855, 3221291559, 3223716391, 3223781927, 3223847463, 3223912999, 3223978535, 3224044071, 3222077991, 3224109607, 3224175143, 3224240679, 3224306215 ],
  "Unfathomablepit": [ 3221226032 ],
  "a dungeon": [ 3221291568, 3221357104, 3221422640, 3221488176, 3221553712, 3221619248, 3221684784, 3221750320, 3221815856, 3221881392, 3221946928, 3222012464, 3222078000, 3222143536, 3222209072, 3222274608, 3222340144, 3222405680, 3222471216, 3222536752, 3222602288, 3222733360, 3222798896, 3222864432, 3222929968, 3223061040, 3223126576, 3223192112 ],
  "Granitevoid": [ 3222995504 ],
  "Sentinel HQ": [ 3223257648 ],
  "a woodshack": [ 3223585328, 3223650864, 3223716400, 3223781936, 3223847472, 3223913008, 3223978544, 3224109616, 3224175152, 3223585398, 3223650934, 3223716470, 3223782006, 3223847542, 3223913078, 3223978614, 3224044150, 3224109686, 3224175222, 3224240758, 3224306294, 3224371830, 3224437366, 3224502902, 3224568438, 3224633974, 3224699510, 3224765046, 3224830582, 3224896118, 3224961654, 3225027190, 3225092726, 3225158262, 3225223798, 3225289334, 3225354870, 3225420406, 3225485942, 3225551478, 3225617014, 3225682550, 3225748086, 3225813622, 3225879158, 3225944694, 3226010230, 3226075766, 3226141302, 3226206838, 3227779767, 3227845303, 3227910839, 3227976375, 3221947064, 3222078136, 3222143672 ],
  "a waterwell": [ 3224306224, 3224371760, 3224437296, 3222930038, 3222995574, 3223061110, 3225486007 ],
  "Clan Military Com Station": [ 3221488181, 3221881397, 3222143541 ],
  "Grimeyvault": [ 3221226037, 3221946933, 3222012469, 3222078005, 3223454331 ],
  "Flintpothole": [ 3221357109 ],
  "Mountain Entrance": [ 3222209077, 3222274613, 3222340149, 3222405685, 3222471221, 3221226142, 3223323294 ],
  "Stoneyden": [ 3221291573, 3221881399 ],
  "Shallowcellar": [ 3221619253 ],
  "Mineralfissure": [ 3221684789 ],
  "Marblecavern": [ 3221422645 ],
  "condemned supply-shop": [ 3222667829 ],
  "Clan Entrance": [ 3221750325 ],
  "Rhino house": [ 3222864437, 3222929973, 3222995509, 3223061045, 3223126581, 3223192117, 3223257653, 3223323189, 3223388725, 3223454261, 3223519797, 3223585333, 3223650869, 3223716405, 3223781941, 3223847477, 3223913013, 3223978549, 3224044085, 3224109621, 3224175157, 3224240693, 3224306229, 3224371765, 3224437301, 3224502837 ],
  "a suspicious looking building": [ 3222733365 ],
  "Kolberg ": [ 3221291574 ],
  "Mezzanin": [ 3221357110 ],
  "Back Entrance": [ 3221226038 ],
  "Berry Mion": [ 3221488182 ],
  "Subway": [ 3221750326 ],
  "Shallowlair": [ 3221815862 ],
  "Mineralmine": [ 3221226039 ],
  "Lavarockmine": [ 3221291575 ],
  "Marbledig": [ 3221357111 ],
  "Granitegrotto": [ 3221422647 ],
  "Limestonepothole": [ 3221619255 ],
  "Flintden": [ 3221815863 ],
  "Gravelhollow": [ 3221946935 ],
  "Rockcellar": [ 3222143543 ],
  "Mineralgrotto": [ 3221488183 ],
  "Sandstonechamber": [ 3221553719 ],
  "Graveldungeon": [ 3221684791 ],
  "Limestonehall": [ 3221750327 ],
  "Stoneymine": [ 3222078007 ],
  "Dungeon Entrance": [ 3222209079, 3222274615, 3222340151, 3222602295, 3222667831, 3222733367, 3222798903, 3221422750, 3221488286, 3223061150, 3223126686, 3223192222, 3223257758, 3221488301, 3221750445, 3222667949, 3222733485 ],
  "Omni Mine office": [ 3223978554, 3224109626, 3224240698, 3225092666, 3225158202, 3225289274, 3225354810 ],
  "Abandoned Base": [ 3225813562, 3225879098, 3226010170, 3226075706, 3226141242 ],
  "Sewer Entrance": [ 3223847482, 3228369506, 3228435042 ],
  "Mantis Cave": [ 3221226042, 3221357114, 3221488186, 3221619258, 3221750330, 3221881402, 3222012474, 3222143546, 3222274618, 3222405690, 3222536762, 3222667834, 3222798906, 3222929978, 3223061050, 3223192122, 3223323194, 3223454266, 3223585338 ],
  "Desert entrance": [ 3221291578, 3221422650, 3225223738, 3221553722, 3221684794, 3221815866, 3225420346, 3221946938, 3222078010, 3225551418, 3222209082, 3222340154, 3222471226, 3222602298, 3222733370, 3222864442, 3225944634, 3222995514, 3223126586, 3223257658, 3223388730, 3223519802, 3223650874, 3223781946, 3223913018, 3224175162, 3224306234, 3224371770, 3224437306, 3224502842, 3224568378, 3224633914, 3224699450, 3224764986, 3224830522, 3224896058, 3224961594, 3225027130, 3223716410 ],
  "Dead Town Building": [ 3225485882, 3225616954, 3225682490 ],
  "a cave": [ 3221226057, 3221291593, 3221357129, 3221553737, 3223454326, 3223519862, 3221291673, 3235775129, 3222405785, 3222471321, 3222536857, 3221422745, 3221230370, 3221230371 ],
  "a tent that leads underground": [ 3221750345, 3221815881, 3221881417 ],
  "an underground facility": [ 3221946953, 3222012489, 3222078025, 3222405706 ],
  "an entrance to some underground tubes": [ 3221488201, 3222471242 ],
  "a wrecked warship": [ 3221422665, 3222274634, 3222340170 ],
  "a shack": [ 3221619273, 3221684809 ],
  "an entrance into a vent system": [ 3221750346 ],
  "an abandoned bunker": [ 3221815882, 3221881418 ],
  "an entrance to an underground pipe system": [ 3221946954, 3222012490 ],
  "Enigma House": [ 3221357134, 3221422670, 3221488206, 3221553742, 3221619278, 3221684814, 3221750350, 3221815886, 3221881422, 3221946958, 3222012494, 3222078030, 3222143566, 3222209102, 3222274638, 3222340174, 3222405710, 3222471246, 3222536782, 3222602318, 3222667854, 3221226062, 3221291598 ],
  "Enigma Tree": [ 3223061075 ],
  "Swampshoul House": [ 3221226067, 3221291603, 3221357139, 3221422675, 3221488211, 3221553747, 3221619283, 3221684819, 3221750355, 3221815891, 3221881427, 3221946963, 3222012499, 3222078035, 3222143571, 3222209107, 3222274643 ],
  "Southern Granite Cave": [ 3221226072 ],
  "Riverside Cave": [ 3221291608 ],
  "Forest Overhang Cave": [ 3221357144 ],
  "Forest Plateau Cave System": [ 3223126616 ],
  "Bridge-side Cavern": [ 3221488216 ],
  "Heavy Forest Overhang Cave": [ 3221422680 ],
  "Roadside Animal Den": [ 3223257688 ],
  "Mid-Forest Animal Den": [ 3223323224 ],
  "Riverside Animal Den": [ 3223388760 ],
  "Impact Site Animal Den": [ 3223454296 ],
  "Animal Burrow Near Rhinoman Village": [ 3223519832 ],
  "Mountain Valley Cave": [ 3221553752 ],
  "Crashed Transport Ship": [ 3222012504, 3222078040, 3222143576 ],
  "Taern Cave": [ 3223650904 ],
  "Zyla'Gul Caverns": [ 3223716440 ],
  "Ehndromus Cave": [ 3223781976 ],
  "Grisham's Cavern": [ 3223847512 ],
  "Mnemon Cave": [ 3223913048 ],
  "Selodon Cavern": [ 3223978584 ],
  "Ensynian Caves": [ 3224044120 ],
  "Vetyr Cave": [ 3224109656 ],
  "Menosyne Caves": [ 3224175192 ],
  "Uluyan Cave": [ 3224240728 ],
  "Decuto's Cave": [ 3224306264 ],
  "Tarnov Cave": [ 3224371800 ],
  "Dasian Cavern": [ 3224437336 ],
  "building": [ 3221619288, 3221226077, 3222340239, 3222405775, 3222471311, 3222536847, 3222602383, 3222667919, 3222733455, 3222798991, 3222864527, 3222930063, 3222995599, 3223061135, 3223126671, 3223192207, 3223257743, 3223323279, 3223388815, 3223454351, 3223519887, 3223585423, 3223650959, 3223716495, 3223782031, 3223847567, 3223913103, 3223978639 ],
  "Swamp House": [ 3221488221, 3222471261, 3222536797, 3222602333, 3222667869, 3222733405, 3222798941, 3222864477, 3222930013, 3222995549, 3223061085, 3223126621, 3223192157, 3223257693, 3223323229, 3223388765, 3223454301, 3223519837, 3223585373, 3223650909, 3223716445, 3223781981, 3223847517, 3223913053, 3223978589, 3224044125, 3224109661, 3224175197, 3224240733, 3224306269, 3224371805, 3224437341, 3224502877 ],
  "ruin": [ 3221291613 ],
  "shack": [ 3221422685, 3229287190, 3229549334, 3229614870, 3229680406, 3229745942, 3229811478, 3229877014, 3229942550, 3230008086, 3230073622, 3230139158, 3230204694, 3230270230, 3230335766, 3230401302, 3230466838, 3230532374, 3230597910, 3230663446, 3230728982, 3230794518, 3230991126, 3226075927, 3226141463, 3226206999, 3226272535, 3226338071, 3226403607, 3226469143 ],
  "Scape": [ 3221357149 ],
  "Silverstonemine": [ 3221619293 ],
  "Flint Flats": [ 3221684829 ],
  "Grimeymine": [ 3221750365 ],
  "Gritty Homes": [ 3221815901 ],
  "Mineral Homes": [ 3221881437 ],
  "Investigative Inways": [ 3221946973 ],
  "Last Post": [ 3222012509 ],
  "Moss Rise": [ 3222078045 ],
  "Last Hope": [ 3222143581 ],
  "Flintpit": [ 3222209117 ],
  "Pebble Quarters": [ 3222274653 ],
  "Bankers Walk": [ 3222340189 ],
  "Flinttomb": [ 3222405725 ],
  "Nano-Freak House": [ 3221226082, 3221291618, 3221357154, 3221422690, 3221488226, 3221553762, 3221619298, 3221684834, 3221750370, 3221815906, 3221881442, 3221946978, 3222012514, 3222078050, 3222143586, 3222209122, 3222274658, 3222340194, 3222405730, 3222471266, 3222536802, 3222602338, 3222667874 ],
  "Swamp Den": [ 3222733410, 3222798946, 3222864482, 3222930018, 3222995554, 3223061090, 3223257698, 3223323234, 3223454306, 3223519842, 3223585378, 3223650914, 3223716450, 3223781986, 3223847522, 3223913058, 3223978594, 3224044130, 3224109666, 3224175202, 3224240738, 3224306274, 3224371810, 3224437346, 3224502882, 3224568418, 3224633954, 3224699490, 3224765026, 3224830562, 3224896098, 3224961634, 3225027170, 3225092706, 3225158242, 3225223778, 3225289314, 3225354850, 3225420386, 3225485922, 3225551458, 3225616994, 3225682530, 3225748066, 3225813602, 3225879138, 3225944674, 3226010210, 3226141282, 3226206818, 3226272354, 3226337890, 3226403426, 3226468962, 3226534498, 3226600034, 3226665570, 3226731106, 3226796642, 3226862178, 3226927714, 3226993250, 3227058786, 3227124322, 3227189858, 3227255394, 3227320930, 3227386466, 3227452002, 3227517538, 3227583074, 3227648610, 3227714146, 3227779682 ],
  "Unfinished building": [ 3223126626 ],
  "old factory": [ 3227845218, 3227910754, 3227976290, 3228041826, 3228107362, 3228172898, 3228238434, 3228303970 ],
  "Mine entrance": [ 3223192162 ],
  "Charcoal Caves": [ 3221815911 ],
  "Dockside Bunker": [ 3221881447 ],
  "Dockside Warehouse": [ 3221946983 ],
  "Barracks": [ 3222012519, 3222078055 ],
  "Cave Entrance": [ 3222143591, 3221684839, 3221750375, 3222274663, 3222667879, 3221357164, 3221422700, 3221553772, 3221553777, 3221619313, 3227452017, 3227517553, 3227583089, 3227648625, 3227714161, 3227779697, 3227845233, 3228172913, 3228238449, 3228303985, 3228369521, 3228435057, 3228500593, 3228566129, 3228631665, 3228697201, 3228762737, 3228828273, 3228893809, 3228959345, 3229024881, 3229090417, 3229155953, 3224765071, 3221291678, 3221357214, 3221619373, 3221357229, 3221422765, 3221553837, 3221684909, 3221291695, 3221357231, 3221488303, 3221619375, 3221684911, 3221750447, 3221815983, 3221881519 ],
  "Omni Military": [ 3221226087 ],
  "Hard Luck Ruins": [ 3221291623 ],
  "Ruined House": [ 3221357159 ],
  "Blasted House": [ 3221422695 ],
  "Collapsed House": [ 3221488231 ],
  "Collapsed Ruins": [ 3221553767 ],
  "Tube": [ 3221619303 ],
  "Hollow Caverns": [ 3222340199 ],
  "Gudian Caves": [ 3222405735 ],
  "Al'Seril Catacombs": [ 3222536807 ],
  "Secluded Base": [ 3222733415 ],
  "Rocky Hall": [ 3222471271 ],
  "Ventilation system": [ 3221226092, 3221291628 ],
  "Omni Bunker": [ 3221684844 ],
  "Omni-Tek Bunker": [ 3222405745, 3222471281, 3222864497, 3223388785, 3223454321 ],
  "Living Quarter": [ 3222536817, 3222602353, 3222667889, 3223061105, 3223126641, 3223192177, 3223257713, 3223323249, 3225617009, 3225682545, 3225748081, 3225813617, 3225879153, 3225944689, 3226010225, 3226075761, 3226141297, 3226272369, 3226927729, 3226993265, 3227058801, 3227124337, 3227189873, 3227255409, 3227320945, 3227386481 ],
  "Armored Office": [ 3222733425, 3222798961, 3222930033, 3222995569, 3224765041, 3224830577, 3224896113, 3224961649, 3225027185, 3225420401 ],
  "Research Facility": [ 3224306289 ],
  "Factory Ruin": [ 3223519857, 3223585393, 3223650929, 3223716465, 3223782001, 3223847537, 3223913073 ],
  "Supply Depot": [ 3224437361, 3224502897, 3224568433, 3224633969, 3224699505 ],
  "Factory": [ 3225092721, 3225158257, 3225223793, 3225289329, 3225551473, 3226337905, 3226403441, 3226468977, 3226534513, 3226600049, 3226665585, 3226731121, 3226796657, 3226862193 ],
  "Office": [ 3225354865 ],
  "Old Mine Entrance": [ 3227910769, 3227976305, 3228041841, 3222274673 ],
  "Entrance": [ 3221226097, 3221291633, 3221357169, 3221422705, 3221488241, 3222340209, 3224371825, 3221684849, 3221750385, 3221815921, 3221881457, 3221946993, 3222012529, 3222078065, 3222143601, 3222209137 ],
  "an Omni-Tek outpost": [ 3221226102, 3221291638, 3221357174, 3221422710, 3221488311, 3221553847, 3221619383, 3221684919, 3221750455, 3221815991, 3221881527, 3221947063, 3222012599, 3222078135, 3222143671 ],
  "a factory building": [ 3221488246, 3221553782, 3221881462, 3222209207, 3222274743, 3222340279, 3222405815, 3222471351, 3222536887, 3222602423, 3223257783, 3222602478, 3222668014 ],
  "a livingmodule": [ 3221619318, 3221684854, 3221750390, 3221815926, 3222799031, 3222864567, 3222930103, 3222995639, 3223061175, 3223126711, 3223192247 ],
  "a dungeon entrance": [ 3226272374 ],
  "Trinity Face Cave": [ 3221357179, 3221422715, 3221488251, 3221553787, 3222012539, 3222078075, 3222143611, 3222602363, 3222667899, 3222733435, 3222798971, 3222864507, 3222930043, 3222995579, 3223061115, 3223126651, 3223192187, 3223257723, 3223323259, 3221619323, 3221684859, 3221947003 ],
  "Mutant Cave": [ 3221815931, 3222274683, 3222340219, 3222405755, 3222209147, 3222471291 ],
  "Obsidianhall": [ 3221750395 ],
  "Graniteden": [ 3223782011 ],
  "Mineralgrave": [ 3223388795 ],
  "Minerallair": [ 3223519867 ],
  "Omnitek Bunker": [ 3221881467 ],
  "Shallowgrave": [ 3223585403 ],
  "Limestonedungeon": [ 3223716475 ],
  "Lavarockdig": [ 3221291643 ],
  "The Downward Spiral": [ 3221947008 ],
  "Larsons House": [ 3221750400 ],
  "Lund's Lonely and Most Private Hideout": [ 3221291648 ],
  "Larsons": [ 3221488256 ],
  "Kurt Diesel's Storehouse": [ 3221422720 ],
  "Moffa's Tunnelsystem": [ 3221815936 ],
  "Karsten Klikk's Hangout": [ 3221357184 ],
  "Clan Supply Depot": [ 3221553792 ],
  "?nima HQ": [ 3221226112 ],
  "The Old Subway": [ 3221619328 ],
  "Lava Dipper's Cave": [ 3221226118 ],
  "Crater Impact Mine": [ 3221291654 ],
  "Farmhouse": [ 3221357190 ],
  "South Mountains Cave System": [ 3221488262 ],
  "South Mountains Abandoned Mine": [ 3221553798 ],
  "Hilltop Hideaway": [ 3221684870 ],
  "Southeast Mountainside Cave": [ 3221750406 ],
  "Small Roadside Cave": [ 3221815942 ],
  "South Crater Farm Wall Cave": [ 3221881478 ],
  "Secluded Crater Farm Wall Cave": [ 3221947014 ],
  "Northern Crater Farm Wall Cave": [ 3222012550 ],
  "Abandoned Mutant Dwelling": [ 3222078086 ],
  "South Crownhead Cavern": [ 3222143622 ],
  "North Crownhead Cavern": [ 3221422726 ],
  "Forest Swamp Cavern": [ 3221291655 ],
  "Eroded Caves": [ 3221357191 ],
  "Abandoned Rocky Upsurge Mining Complex": [ 3221226119 ],
  "Brainy Ant Mountain": [ 3221488263 ],
  "Striking Ant Forest Cavern": [ 3221553799 ],
  "Desert Refuge Cave": [ 3221684871 ],
  "Hidden Omni-Tek Staging Base": [ 3221422727 ],
  "Hunter's Lodge": [ 3221750407 ],
  "Mountain Caves": [ 3221226122, 3221291658, 3221553802, 3221619338, 3221684874, 3221815946, 3221226157, 3221291693, 3221422767, 3221553839, 3221947055, 3222012591, 3222078127, 3222143663, 3222209199 ],
  "Ruin Dungeon": [ 3221881482, 3221947018, 3222012554 ],
  "Workers Flats": [ 3221226127 ],
  "Village House": [ 3221291663, 3221357199, 3221422735, 3221488271, 3221553807, 3221619343, 3221684879, 3221750415, 3221815951, 3221881487, 3221947023, 3222012559, 3222078095, 3222143631, 3222209167, 3222274703 ],
  "Wood Shack": [ 3224044175, 3224109711, 3224175247, 3224240783, 3224306319, 3224371855, 3224437391 ],
  "Tent": [ 3224502927, 3224568463, 3224633999, 3224699535 ],
  "Storage Cave": [ 3225027215 ],
  "Hidden Stockhouse": [ 3225092751 ],
  "Borrowed Hole": [ 3221553822, 3221619358, 3221684894, 3221750430, 3221815966, 3221881502, 3221947038, 3222012574, 3222078110, 3222143646, 3222209182, 3222274718, 3223388830, 3223519902, 3223585438, 3223650974, 3223716510, 3223782046, 3223847582, 3223913118, 3223978654, 3224044190, 3224109726, 3224175262, 3224240798, 3224306334, 3224371870, 3224437406, 3224502942, 3224568478, 3224634014, 3224699550, 3224765086, 3224830622, 3224896158, 3224961694, 3225027230, 3225092766, 3225158302, 3225223838, 3225289374, 3225354910, 3225420446, 3225485982, 3225551518, 3225617054, 3225682590, 3225748126, 3225813662, 3225879198, 3225944734, 3226010270, 3226075806, 3226141342, 3226206878, 3226272414, 3226337950, 3226403486, 3226469022 ],
  "Cliffside Tunnel": [ 3222340254, 3222405790, 3222471326, 3222536862, 3222602398, 3222667934, 3222733470, 3222799006, 3222864542, 3222930078, 3222995614, 3223454366 ],
  "Main Mine": [ 3226534558 ],
  "Galways Private Trove": [ 3222799021, 3222864557 ],
  "a factory": [ 3221226167, 3221291703, 3221357239, 3221422775, 3222667959, 3222733495, 3222274798, 3222405870, 3222471406 ],
  "a mutant cave": [ 3226665655, 3226731191, 3221553848 ],
  "Lush Hills Resort": [ 3226796727, 3226862263, 3226927799, 3226993335, 3227058871, 3227124407, 3227189943, 3227255479, 3227321015, 3227386551, 3227452087 ],
  "a ruined house": [ 3227517623, 3227583159, 3227648695, 3221619384, 3221750456 ],
  "Waylon Carmichael's home": [ 3227714231 ],
  "a wrecked tank": [ 3228041911, 3228107447 ],
  "a wrecked pipe": [ 3228172983, 3228238519, 3228304055, 3228369591, 3228435127 ],
  "a ruined factory": [ 3228500663, 3228566199 ],
  "Omni-Med ": [ 3222012604 ],
  "Omni-Mine": [ 3222078140, 3222143676 ],
  "Omni-Tek Headquarters office": [ 3221226172, 3221291708, 3221357244, 3221422780, 3221488316, 3221553852, 3221619388, 3221684924, 3221947068, 3221881532, 3221815996, 3221750460 ],
  "House in Omni-1 Entertainment": [ 3221684929, 3221816001, 3221947073, 3222012609, 3222078145, 3222143681, 3222209217, 3222274753, 3222405825, 3222471361, 3222536897, 3222602433, 3222667969, 3222733505, 3222799041, 3222930113, 3223061185, 3223192257, 3223257793, 3223388865, 3223454401, 3223585473, 3223651009, 3224044225, 3224109761, 3224175297, 3224371905, 3224568513, 3224634049, 3224699585, 3224765121, 3224961729, 3225027265, 3232170689, 3225354945, 3225420481, 3225486017, 3225551553, 3225617089, 3225682625, 3225813697, 3225879233, 3225944769, 3226010305, 3226075841, 3226141377, 3226206913, 3226272449, 3226337985, 3226534593, 3226600129, 3226927809, 3227058881, 3227124417, 3227189953, 3227255489, 3227321025, 3227386561, 3227452097, 3227517633, 3227648705, 3227779777, 3227910849, 3228172993, 3228304065, 3228369601, 3228435137, 3228500673, 3228631745, 3228697281, 3228828353, 3228893889, 3228959425, 3229024961, 3229156033, 3229221569, 3229352641, 3229483713, 3229680321, 3229745857, 3229811393, 3230008001, 3230073537, 3230204609, 3230270145, 3230335681, 3221553868 ],
  "Recyclebuilding in Omni-1 Entertainment": [ 3221226177, 3221291713, 3221357249, 3221422785, 3221488321, 3221553857, 3221619393, 3221750465, 3222143692, 3222209228, 3222274764 ],
  "Slumhouse in Omni-1 Entertainment": [ 3221881537, 3222340289, 3222864577, 3222995649, 3223126721, 3223323329, 3223519937, 3223716545, 3223782081, 3223847617, 3223913153, 3223978689, 3224240833, 3224306369, 3224437441, 3224502977, 3224830657, 3224896193, 3225092801, 3225158337, 3225223873, 3225748161, 3226403521, 3226469057, 3226665665, 3226731201, 3226796737, 3226862273, 3226993345, 3227714241, 3227845313, 3227976385, 3228041921, 3229287105, 3229876929, 3229942465, 3230139073, 3230401217, 3230466753, 3230532289, 3230597825, 3230663361, 3230728897, 3230794433, 3230859969, 3230925505, 3230991041, 3231056577, 3231122113, 3231187649, 3231253185, 3231318721, 3231384257, 3231449793, 3231515329, 3231580865, 3231646401, 3231711937, 3231777473, 3231843009, 3231908545, 3231974081, 3232039617, 3232105153, 3225289409, 3227583169, 3228107457, 3228566209, 3228762817, 3229549249, 3229614785, 3232236225, 3232301761, 3232367297, 3232432833, 3232498369, 3232563905, 3232629441, 3223847628 ],
  "Ruin in Omni-1 Entertainment": [ 3235381953, 3235447489, 3235513025, 3235578561 ],
  "Young Mutant Village Wall Entrance": [ 3221357260 ],
  "Easy Rocky Upsurge Shack": [ 3221226188 ],
  "Omnitek Stockhouse": [ 3221684940 ],
  "Omni Storage": [ 3221750476 ],
  "Omnitek Storehouse": [ 3221816012 ],
  "Eoptian Caves": [ 3221947084 ],
  "Zoloft's Cave": [ 3222012620 ],
  "Young Mutant Village Building": [ 3222405836, 3222471372, 3222536908, 3222602444 ],
  "Mutant Village Wall Entrance": [ 3221226189 ],
  "Mutant Village East Wall Entrance": [ 3221291725 ],
  "Small Mutant Village Wall Entrance": [ 3221357261 ],
  "Dry Desert Caves": [ 3221422797 ],
  "Mutant Swamp Village Wall Entrance": [ 3221488333 ],
  "Mutant Swamp Village Caves": [ 3221553869 ],
  "Medium Rocky Upsurge Mine": [ 3221619405 ],
  "Difficult Rocky Upsurge Mining Complex": [ 3221684941 ],
  "Animal Burrow": [ 3221750477 ],
  "Dragonsback Cavern": [ 3221816013 ],
  "Fierin Caves": [ 3221881549 ],
  "Molond Cave": [ 3221947085 ],
  "Derolan Caves": [ 3222012621 ],
  "Juhn Cave": [ 3222078157 ],
  "Mutant Village Building": [ 3222143693, 3222209229, 3222274765, 3222340301, 3222405837, 3222471373 ],
  "Small Mutant Village Building": [ 3222536909, 3222602445, 3222667981, 3222733517, 3222799053 ],
  "Mutant Swamp Village Building": [ 3222864589, 3222930125, 3222995661, 3223061197, 3223126733, 3223192269, 3223257805, 3223323341, 3223388877, 3223454413, 3223519949 ],
  "Waterfall Encampment": [ 3223585485 ],
  "Rome house": [ 3221226207, 3221291743, 3221357279, 3221422815, 3221488351, 3221553887 ],
  "Omni-Admin": [ 3221619423, 3221684959, 3221619428, 3221684964 ],
  "a building in Rome Green": [ 3221226212, 3221291748, 3221357284, 3221422820 ],
  "Omni-Med": [ 3221488356, 3221553892 ],
  "an air supply complex": [ 3222536942 ],
  "Omni Mine, property of Omni-Tek": [ 3221422840, 3221488376, 3221553912, 3221619448, 3221684984, 3221881592, 3221947128 ],
  "Old mine": [ 3221291768, 3221750520, 3221816056 ],
  "Mountain Cave": [ 3221357304, 3222012664, 3222143736, 3222209272, 3222274808 ],
  "house": [ 3223585558, 3223651094, 3222930198, 3222995734, 3223061270, 3223126806, 3223192342, 3223257878, 3223323414, 3226141462, 3226206998, 3223388950 ],
  "small house": [ 3223716630, 3223782166, 3223847702, 3224044310, 3224109846, 3224240918, 3224306454, 3224371990, 3224437526, 3224503062, 3224699670, 3224765206, 3224830742, 3224896278, 3224961814, 3225027350, 3225092886, 3225158422, 3225223958, 3225289494, 3225355030, 3225551638, 3225617174, 3225748246, 3225813782, 3226010390, 3226075926, 3226403606, 3226469142, 3226534678, 3226600214, 3226665750, 3226731286, 3226862358, 3226993430, 3227058966, 3227124502, 3227190038, 3227255574, 3227321110, 3227386646, 3227452182, 3227517718, 3227648790, 3227779862, 3227845398, 3227910934, 3227976470, 3228042006, 3228107542, 3228304150, 3226272534, 3221357334 ],
  "A house": [ 3221488406, 3221553942 ],
  "towerhouse": [ 3228369686, 3228435222, 3228566294, 3228631830, 3228697366, 3228762902, 3228828438, 3228893974, 3228959510, 3221422870, 3229090582 ],
  "Death Valley Cave": [ 3221685014 ],
  "cave": [ 3221750550, 3221816086, 3221947158, 3222012694, 3221881622, 3222078230, 3222143766, 3221226263, 3221291799, 3221816087, 3221881623, 3221947159, 3222012695, 3222078231, 3222143767, 3222209303, 3222274839, 3222340375 ],
  "large quarters": [ 3222209302, 3222274838 ],
  "quarters": [ 3222340374, 3222405910, 3222471446 ],
  "barracks": [ 3222536982, 3222602518, 3222668054, 3222733590, 3222799126, 3222864662 ],
  "mutant lair": [ 3221291798 ],
  "dig site": [ 3230860054 ],
  "mine": [ 3230925590 ],
  "Site building": [ 3231122198 ],
  "Site Notum Office": [ 3231187734 ],
  "ship wreck": [ 3221226262 ],
  "stub": [ 3221357335, 3221422871, 3221488407, 3221553943, 3221619479, 3221685015 ],
  "Nano Freak house": [ 3221750555, 3221816091, 3222930203, 3222995739, 3221881627, 3221226267, 3221291803, 3221357339, 3221422875, 3221488411, 3221553947, 3221619483, 3221685019, 3222078235, 3222143771, 3222209307, 3221947163, 3222012699, 3222274843 ],
  "Omni-Mine Mine entrance": [ 3222405915, 3222471451, 3222536987, 3222602523, 3222668059, 3222733595, 3222799131, 3222864667 ],
  "a house in Bliss": [ 3224371995, 3224437531, 3224503067, 3224568603, 3224634139, 3224699675 ],
  "Desert Dungeon": [ 3222340379, 3223061275, 3223126811, 3223192347, 3223257883, 3223323419, 3223388955, 3223454491, 3223520027, 3223585563, 3223651099, 3223716635, 3223782171, 3223847707, 3223913243, 3223978779, 3224044315, 3224109851, 3224175387, 3224240923, 3224306459 ],
  "Granite Void": [ 3225748251 ],
  "Crimson Tomb": [ 3225879323 ],
  "Lavarock Crypt": [ 3225944859 ],
  "Stoney Pit": [ 3226075931 ],
  "Firestone Cave": [ 3226141467 ],
  "Obsidian Shaft": [ 3226272539 ],
  "Rocky Shaft": [ 3226338075 ],
  "Rockhole": [ 3226469147 ],
  "Unfathomable Den": [ 3224765211 ],
  "Gritty Burrow": [ 3224896283 ],
  "Murky Cellar": [ 3225158427 ],
  "Silverstone Den": [ 3225289499 ],
  "Bottomless Chamber": [ 3225355035 ],
  "Bottomless Void": [ 3225486107 ],
  "Flint Shaft": [ 3225551643 ],
  "Crimson Pit": [ 3225682715 ],
  "Gritty Hollow": [ 3224961819 ],
  "Silverstone Mine": [ 3225092891 ],
  "A building in Borealis": [ 3221226272, 3221291808, 3221357344, 3221422880, 3221488416, 3221619488 ],
  "Sewer entrance": [ 3221685024 ],
  "Abandoned House": [ 3221226425, 3221228572, 3221228573, 3221228574, 3221228575, 3221228576, 3221228577, 3221228578, 3221228579, 3221228580, 3221228581, 3221228582, 3221228583, 3221228584, 3221228585, 3221228586, 3221228587, 3221228588, 3221228589, 3221228592, 3221228593, 3221228594, 3221228595, 3221228596, 3221228597, 3221228598, 3221228599, 3221228600, 3221228601, 3221228602, 3221228603, 3221228604, 3221228605, 3221228606, 3221228607, 3221228608, 3221228609, 3221228610, 3221228611, 3221228612, 3221228613, 3221228614, 3221228615, 3221228616, 3221228617, 3221228618, 3221228619, 3221228620, 3221228621 ],
  "An old discarded subway entrance": [ 3221226427 ],
  "Surveillance Office": [ 3221228472, 3221228473, 3221228474, 3221228475, 3221228476, 3221228477, 3221228478, 3221228479, 3221228480, 3221228481, 3221228482, 3221228483, 3221228484, 3221228485, 3221228486, 3221228487, 3221228488, 3221228489, 3221228490, 3221228491, 3221228492, 3221228493, 3221228494, 3221228495, 3221228496, 3221228497, 3221228498, 3221228499, 3221228500, 3221228501, 3221228502, 3221228503, 3221228504, 3221228505, 3221228506, 3221228507, 3221228508, 3221228509, 3221228510, 3221228511, 3221228512, 3221228513, 3221228514, 3221228515, 3221228516, 3221228517, 3221228518, 3221228519, 3221228520, 3221228521, 3221228522, 3221228523, 3221228524, 3221228525, 3221228526, 3221228527, 3221228528, 3221228529, 3221228530, 3221228531 ],
  "Subway Entrance": [ 3221228532, 3221228533, 3221228534, 3221228535, 3221228536, 3221228537, 3221228538, 3221228539, 3221228540, 3221228541, 3221228542, 3221228543, 3221228552, 3221228553, 3221228554, 3221228555, 3221228556, 3221228557, 3221228558, 3221228559, 3221228560, 3221228561 ],
  "Trial-Area": [ 3221229473, 3221361088, 3221230077, 3221295881, 3221295889 ],
  "A door": [ 3221229782 ],
  "A Door": [ 3221295318, 3221360854, 3221426390, 3221295319, 3221360855, 3221426391 ],
  "A hidden cave": [ 3221491927, 3221491928 ],
  "Collapsed Temple": [ 3221229783 ],
  "Dark Passage": [ 3221557463 ],
  "An Entrance": [ 3221229784 ],
  "Redeemed Entrance": [ 3221360856 ],
  "Abandoned Crypt": [ 3221426392 ],
  "Between the roots": [ 3221557464 ],
  "Under the rock": [ 3221295320 ],
  "Frozen Gateway": [ 3221229792 ],
  "Redeemed Doorway": [ 3221295328 ],
  "Frozen Trench": [ 3221360864 ],
  "Icy doorway": [ 3221426400 ],
  "Frozen gateway": [ 3221229793 ],
  "A Frozen Door": [ 3221295329 ],
  "A Cold Door": [ 3221360865 ],
  "A Cold Molded Door": [ 3221426401 ],
  "An Icy Door": [ 3221491937 ],
  "A Frosted Door": [ 3221557473 ],
  "Alien Mothership": [ 3221229836 ],
  "Solid Rock": [ 3221229976, 3223392701 ],
  "Wrack Palace": [ 3221295512, 3222933949 ],
  "Under Archbile": [ 3221361048, 3223196093 ],
  "The Black Tower": [ 3221229977, 3221950908 ],
  "Crumblestone": [ 3221295513, 3222081980 ],
  "Crystal Towers": [ 3221361049, 3222213052 ],
  "The Shadowpit": [ 3222278590 ],
  "Deep Earth Artery": [ 3222016446 ],
  "Pyramid Underhalls": [ 3221819838 ],
  "Fang's Cavity": [ 3221885375 ],
  "Stormshelter Barracks": [ 3221361087 ],
  "Sprinklecove": [ 3221492159 ],
  "Ripwell Ruins": [ 3221557695 ],
  "Rustburrow": [ 3221688768 ],
  "Remnans Trenches": [ 3221426624 ],
  "Riftweed Hollow": [ 3221492160 ],
  "Tinker Basement": [ 3221623232 ],
  "Hidden Pass Hideout": [ 3221295613 ],
  "Stonecrown Dungeon": [ 3221361149 ],
  "Cave of the Enlighten one": [ 3221426685 ],
  "Notum Mine": [ 3221492221 ],
  "The Third Pantheon": [ 3221230344 ],
  "Sprawling Hives": [ 3221426953 ],
  "Dead Ends": [ 3221492489 ],
  "The Subterranean": [ 3221558025 ],
  "Drowned Dreams": [ 3221361417 ],
  "a sluice entrance": [ 3221623561 ],
  "Enter the Circuit": [ 3221689097 ],
  "Subterranean Sluice Entrance": [ 3221230345 ],
  "The Plunge - Facility Entrance": [ 3221230352 ],
  "The Uncharted Entrance": [ 3221230353 ],
  "Crashed Alien Ship": [ 3221233481 ],
}